quarto-input562ddbed10e9a892
…
parsed <- fromJSON(rawToChar(id_info$content))
spacex_info <- as_tibble(parsed$articles)
spacex_info

# A tibble: 100 × 8
   source$id $name author title description url   urlToImage publishedAt content
   <chr>     <chr> <chr>  <chr> <chr>       <chr> <chr>      <chr>       <chr>  
 1 <NA>      Yaho… Danny… FAA … "The Feder… http… <NA>       2024-09-17… "If yo…
 2 <NA>      [Rem… <NA>   [Rem… "[Removed]" http… <NA>       2024-10-13… "[Remo…
 3 wired     Wired Marta… Spac… "By provin… http… https://m… 2024-10-14… "This …
 4 <NA>      Yaho… Karis… Card… "Cards Aga… http… <NA>       2024-09-20… "If yo…
 5 <NA>      Yaho… Marie… Spac… "NASA and … http… <NA>       2024-10-08… "If yo…
 6 <NA>      Gizm… Tom M… Spac… "SpaceX op… http… https://g… 2024-10-09… "Space…
 7 <NA>      Gizm… Adam … Spac… "The compa… http… https://g… 2024-09-17… "Space…
 8 <NA>      Gizm… Passa… Spac… "The compa… http… https://g… 2024-09-20… "The F…
 9 <NA>      Gizm… Passa… Spac… "The compa… http… https://g… 2024-09-24… "Space…
10 <NA>      Gizm… Matt … Card… "Cards Aga… http… https://g… 2024-09-21… "The c…
# ℹ 90 more rows

x <- pluck(spacex_info)
x

# A tibble: 100 × 8
   source$id $name author title description url   urlToImage publishedAt content
   <chr>     <chr> <chr>  <chr> <chr>       <chr> <chr>      <chr>       <chr>  
 1 <NA>      Yaho… Danny… FAA … "The Feder… http… <NA>       2024-09-17… "If yo…
 2 <NA>      [Rem… <NA>   [Rem… "[Removed]" http… <NA>       2024-10-13… "[Remo…
 3 wired     Wired Marta… Spac… "By provin… http… https://m… 2024-10-14… "This …
 4 <NA>      Yaho… Karis… Card… "Cards Aga… http… <NA>       2024-09-20… "If yo…
 5 <NA>      Yaho… Marie… Spac… "NASA and … http… <NA>       2024-10-08… "If yo…
 6 <NA>      Gizm… Tom M… Spac… "SpaceX op… http… https://g… 2024-10-09… "Space…
 7 <NA>      Gizm… Adam … Spac… "The compa… http… https://g… 2024-09-17… "Space…
 8 <NA>      Gizm… Passa… Spac… "The compa… http… https://g… 2024-09-20… "The F…
 9 <NA>      Gizm… Passa… Spac… "The compa… http… https://g… 2024-09-24… "Space…
10 <NA>      Gizm… Matt … Card… "Cards Aga… http… https://g… 2024-09-21… "The c…
# ℹ 90 more rows
